{
  "name": "Notification",
  "plural": "Notifications",
  "base": "PersistedModel",
  "idInjection": true,
  "options": {
    "validateUpsert": true
  },
  "mixins": {
    "Count": {
      "relations": true,
      "total": true,
      "totalWhitelist": [
        "find"
      ]
    },
    "ExtQuery": {}
  },
  "properties": {
    "content": {
      "type": "string",
      "required": true
    },
    "action": {
      "type": "number",
      "default": null
    },
    "options": {
      "type": "object",
      "default": null
    },
    "type": {
      "type": "number",
      "default": 0
    },
    "createdOn": {
      "type": "date",
      "defaultFn": "now"
    },
    "userId": {
      "type": "string",
      "required": false
    },
    "accountId": {
      "type": "string",
      "required": false,
      "default": ""
    }
  },
  "validations": [],
  "relations": {
    "account": {
      "type": "belongsTo",
      "model": "Account",
      "foreignKey": "accountId"
    },
    "user": {
      "type": "belongsTo",
      "model": "user",
      "foreignKey": "userId"
    }
  },
  "acls": [],
  "methods": {}
}
